d1: -35.7632, 1.6256, -11.3792
d2: -26.0096, 1.6256, -11.3792
d3: -35.7632, 4.8768, -6.5024
d4: -26.0096, 1.8288, -6.5024
d1: -35.5632, 1.6256, -11.3792
d2: -1.#IND, -1.#IND, -1.#IND
d3: -35.5836, 4.8768, -6.59037
d4: -26.0096, 1.9348, -6.3328
d1: -35.3887, 1.6256, -11.3792
d2: -1.#IND, -1.#IND, -1.#IND
d3: -35.4269, 4.8768, -6.66713
d4: -26.0096, 2.02728, -6.18483
d1: -35.3463, 1.6256, -11.3792
d2: -1.#IND, -1.#IND, -1.#IND
d3: -35.3888, 4.8768, -6.68578
d4: -26.0096, 2.04976, -6.14887
d1: -35.3114, 1.6256, -11.3792
d2: -1.#IND, -1.#IND, -1.#IND
d3: -35.3574, 4.8768, -6.70115
d4: -26.0096, 2.06827, -6.11925
d1: -35.2751, 1.6256, -11.3792
d2: -1.#IND, -1.#IND, -1.#IND
d3: -35.3248, 4.8768, -6.71712
d4: -26.0096, 2.08752, -6.08845
d1: -35.2382, 1.6256, -11.3792
d2: -1.#IND, -1.#IND, -1.#IND
d3: -35.2917, 4.8768, -6.73332
d4: -26.0096, 2.10704, -6.05722
d1: -35.2051, 1.6256, -11.3792
d2: -1.#IND, -1.#IND, -1.#IND
d3: -35.262, 4.8768, -6.74788
d4: -26.0096, 2.12458, -6.02916
d1: -35.1689, 1.6256, -11.3792
d2: -1.#IND, -1.#IND, -1.#IND
d3: -35.2295, 4.8768, -6.76381
d4: -26.0096, 2.14378, -5.99844
d1: -35.136, 1.6256, -11.3792
d2: -1.#IND, -1.#IND, -1.#IND
d3: -35.1999, 4.8768, -6.77829
d4: -26.0096, 2.16123, -5.97052
d1: -35.0994, 1.6256, -11.3792
d2: -1.#IND, -1.#IND, -1.#IND
d3: -35.1671, 4.8768, -6.79438
d4: -26.0096, 2.18061, -5.9395
d1: -35.0683, 1.6256, -11.3792
d2: -1.#IND, -1.#IND, -1.#IND
d3: -35.1392, 4.8768, -6.80805
d4: -26.0096, 2.19709, -5.91314
d1: -35.0313, 1.6256, -11.3792
d2: -1.#IND, -1.#IND, -1.#IND
d3: -35.1059, 4.8768, -6.82433
d4: -26.0096, 2.2167, -5.88176
d1: -34.9991, 1.6256, -11.3792
d2: -1.#IND, -1.#IND, -1.#IND
d3: -35.077, 4.8768, -6.83851
d4: -26.0096, 2.23378, -5.85443
d1: -34.9633, 1.6256, -11.3792
d2: -1.#IND, -1.#IND, -1.#IND
d3: -35.0448, 4.8768, -6.85426
d4: -26.0096, 2.25276, -5.82406
d1: -34.9324, 1.6256, -11.3792
d2: -1.#IND, -1.#IND, -1.#IND
d3: -35.0171, 4.8768, -6.86783
d4: -26.0096, 2.26911, -5.7979
d1: -34.8979, 1.6256, -11.3792
d2: -1.#IND, -1.#IND, -1.#IND
d3: -34.9861, 4.8768, -6.883
d4: -26.0096, 2.28739, -5.76866
d1: -34.8674, 1.6256, -11.3792
d2: -1.#IND, -1.#IND, -1.#IND
d3: -34.9587, 4.8768, -6.89644
d4: -26.0096, 2.30358, -5.74276
d1: -34.8327, 1.6256, -11.3792
d2: -1.#IND, -1.#IND, -1.#IND
d3: -34.9275, 4.8768, -6.9117
d4: -26.0096, 2.32197, -5.71333
d1: -34.8019, 1.6256, -11.3792
d2: -1.#IND, -1.#IND, -1.#IND
d3: -34.8999, 4.8768, -6.92523
d4: -26.0096, 2.33827, -5.68725
d1: -34.7663, 1.6256, -11.3792
d2: -1.#IND, -1.#IND, -1.#IND
d3: -34.8679, 4.8768, -6.94089
d4: -26.0096, 2.35714, -5.65705
d1: -34.7356, 1.6256, -11.3792
d2: -1.#IND, -1.#IND, -1.#IND
d3: -34.8403, 4.8768, -6.95442
d4: -26.0096, 2.37345, -5.63097
d1: -34.7048, 1.6256, -11.3792
d2: -1.#IND, -1.#IND, -1.#IND
d3: -34.8127, 4.8768, -6.96796
d4: -26.0096, 2.38976, -5.60486
d1: -34.6695, 1.6256, -11.3792
d2: -1.#IND, -1.#IND, -1.#IND
d3: -34.781, 4.8768, -6.9835
d4: -26.0096, 2.40848, -5.57492
d1: -34.6386, 1.6256, -11.3792
d2: -1.#IND, -1.#IND, -1.#IND
d3: -34.7533, 4.8768, -6.99707
d4: -26.0096, 2.42483, -5.54876
d1: -34.6039, 1.6256, -11.3792
d2: -1.#IND, -1.#IND, -1.#IND
d3: -34.7221, 4.8768, -7.01234
d4: -26.0096, 2.44323, -5.51931
d1: -34.5732, 1.6256, -11.3792
d2: -1.#IND, -1.#IND, -1.#IND
d3: -34.6945, 4.8768, -7.02585
d4: -26.0096, 2.45951, -5.49326
d1: -34.5387, 1.6256, -11.3792
d2: -1.#IND, -1.#IND, -1.#IND
d3: -34.6635, 4.8768, -7.04104
d4: -26.0096, 2.47781, -5.46399
d1: -34.5061, 1.6256, -11.3792
d2: -1.#IND, -1.#IND, -1.#IND
d3: -34.6343, 4.8768, -7.05535
d4: -26.0096, 2.49505, -5.4364
d1: -34.4715, 1.6256, -11.3792
d2: -1.#IND, -1.#IND, -1.#IND
d3: -34.6032, 4.8768, -7.07057
d4: -26.0096, 2.51339, -5.40705
d1: -34.4408, 1.6256, -11.3792
d2: -1.#IND, -1.#IND, -1.#IND
d3: -34.5756, 4.8768, -7.08408
d4: -26.0096, 2.52967, -5.38101
d1: -34.404, 1.6256, -11.3792
d2: -1.#IND, -1.#IND, -1.#IND
d3: -34.5426, 4.8768, -7.10027
d4: -26.0096, 2.54918, -5.3498
d1: -34.3731, 1.6256, -11.3792
d2: -1.#IND, -1.#IND, -1.#IND
d3: -34.5148, 4.8768, -7.11388
d4: -26.0096, 2.56558, -5.32356
d1: -34.3389, 1.6256, -11.3792
d2: -1.#IND, -1.#IND, -1.#IND
d3: -34.4841, 4.8768, -7.1289
d4: -26.0096, 2.58367, -5.29461
d1: -34.3079, 1.6256, -11.3792
d2: -1.#IND, -1.#IND, -1.#IND
d3: -34.4563, 4.8768, -7.14253
d4: -26.0096, 2.6001, -5.26832
d1: -34.2759, 1.6256, -11.3792
d2: -1.#IND, -1.#IND, -1.#IND
d3: -34.4275, 4.8768, -7.1566
d4: -26.0096, 2.61705, -5.2412
d1: -34.2404, 1.6256, -11.3792
d2: -1.#IND, -1.#IND, -1.#IND
d3: -34.3956, 4.8768, -7.17224
d4: -26.0096, 2.6359, -5.21105
d1: -34.2108, 1.6256, -11.3792
d2: -1.#IND, -1.#IND, -1.#IND
d3: -34.369, 4.8768, -7.18527
d4: -26.0096, 2.65159, -5.18593
d1: -34.1772, 1.6256, -11.3792
d2: -1.#IND, -1.#IND, -1.#IND
d3: -34.3389, 4.8768, -7.20003
d4: -26.0096, 2.66938, -5.15747
d1: -34.1458, 1.6256, -11.3792
d2: -1.#IND, -1.#IND, -1.#IND
d3: -34.3106, 4.8768, -7.21386
d4: -26.0096, 2.68604, -5.13082
d1: -34.1109, 1.6256, -11.3792
d2: -1.#IND, -1.#IND, -1.#IND
d3: -34.2794, 4.8768, -7.22918
d4: -26.0096, 2.7045, -5.10128
d1: -34.0797, 1.6256, -11.3792
d2: -1.#IND, -1.#IND, -1.#IND
d3: -34.2513, 4.8768, -7.24293
d4: -26.0096, 2.72107, -5.07477
d1: -34.0443, 1.6256, -11.3792
d2: -1.#IND, -1.#IND, -1.#IND
d3: -34.2195, 4.8768, -7.2585
d4: -26.0096, 2.73983, -5.04475
d1: -34.0113, 1.6256, -11.3792
d2: -1.#IND, -1.#IND, -1.#IND
d3: -34.1899, 4.8768, -7.273
d4: -26.0096, 2.75731, -5.01679
d1: -33.9762, 1.6256, -11.3792
d2: -1.#IND, -1.#IND, -1.#IND
d3: -34.1583, 4.8768, -7.28846
d4: -26.0096, 2.77593, -4.98699
d1: -33.9446, 1.6256, -11.3792
d2: -1.#IND, -1.#IND, -1.#IND
d3: -34.13, 4.8768, -7.30232
d4: -26.0096, 2.79263, -4.96027
d1: -33.9096, 1.6256, -11.3792
d2: -1.#IND, -1.#IND, -1.#IND
d3: -34.0986, 4.8768, -7.31772
d4: -26.0096, 2.81118, -4.93059
d1: -33.8784, 1.6256, -11.3792
d2: -1.#IND, -1.#IND, -1.#IND
d3: -34.0706, 4.8768, -7.33145
d4: -26.0096, 2.82773, -4.90412
d1: -33.8473, 1.6256, -11.3792
d2: -1.#IND, -1.#IND, -1.#IND
d3: -34.0426, 4.8768, -7.34514
d4: -26.0096, 2.84422, -4.87773
d1: -33.8105, 1.6256, -11.3792
d2: -1.#IND, -1.#IND, -1.#IND
d3: -34.0096, 4.8768, -7.36131
d4: -26.0096, 2.8637, -4.84655
d1: -33.7795, 1.6256, -11.3792
d2: -1.#IND, -1.#IND, -1.#IND
d3: -33.9817, 4.8768, -7.37496
d4: -26.0096, 2.88015, -4.82023
d1: -33.7449, 1.6256, -11.3792
d2: -1.#IND, -1.#IND, -1.#IND
d3: -33.9506, 4.8768, -7.3902
d4: -26.0096, 2.89851, -4.79086
d1: -33.7139, 1.6256, -11.3792
d2: -1.#IND, -1.#IND, -1.#IND
d3: -33.9228, 4.8768, -7.40384
d4: -26.0096, 2.91495, -4.76456
d1: -33.6808, 1.6256, -11.3792
d2: -1.#IND, -1.#IND, -1.#IND
d3: -33.893, 4.8768, -7.4184
d4: -26.0096, 2.93249, -4.73649
d1: -33.6495, 1.6256, -11.3792
d2: -1.#IND, -1.#IND, -1.#IND
d3: -33.8649, 4.8768, -7.43215
d4: -26.0096, 2.94907, -4.70997
d1: -33.6162, 1.6256, -11.3792
d2: -1.#IND, -1.#IND, -1.#IND
d3: -33.835, 4.8768, -7.44681
d4: -26.0096, 2.96673, -4.68171
d1: -33.5847, 1.6256, -11.3792
d2: -1.#IND, -1.#IND, -1.#IND
d3: -33.8068, 4.8768, -7.46064
d4: -26.0096, 2.98339, -4.65505
d1: -33.5501, 1.6256, -11.3792
d2: -1.#IND, -1.#IND, -1.#IND
d3: -33.7757, 4.8768, -7.47589
d4: -26.0096, 3.00176, -4.62567
d1: -33.517, 1.6256, -11.3792
d2: -1.#IND, -1.#IND, -1.#IND
d3: -33.746, 4.8768, -7.49042
d4: -26.0096, 3.01927, -4.59765
d1: -33.4852, 1.6256, -11.3792
d2: -1.#IND, -1.#IND, -1.#IND
d3: -33.7174, 4.8768, -7.50441
d4: -26.0096, 3.03613, -4.57067
d1: -33.449, 1.6256, -11.3792
d2: -1.#IND, -1.#IND, -1.#IND
d3: -33.6849, 4.8768, -7.52034
d4: -26.0096, 3.05532, -4.53997
d1: -33.4171, 1.6256, -11.3792
d2: -1.#IND, -1.#IND, -1.#IND
d3: -33.6563, 4.8768, -7.53435
d4: -26.0096, 3.07221, -4.51295
d1: -33.3853, 1.6256, -11.3792
d2: -1.#IND, -1.#IND, -1.#IND
d3: -33.6277, 4.8768, -7.54837
d4: -26.0096, 3.0891, -4.48592
d1: -33.3535, 1.6256, -11.3792
d2: -1.#IND, -1.#IND, -1.#IND
d3: -33.5991, 4.8768, -7.56236
d4: -26.0096, 3.10595, -4.45895
d1: -33.3214, 1.6256, -11.3792
d2: -1.#IND, -1.#IND, -1.#IND
d3: -33.5703, 4.8768, -7.57648
d4: -26.0096, 3.12297, -4.43174
d1: -33.286, 1.6256, -11.3792
d2: -1.#IND, -1.#IND, -1.#IND
d3: -33.5385, 4.8768, -7.59206
d4: -26.0096, 3.14173, -4.40171
d1: -33.2521, 1.6256, -11.3792
d2: -1.#IND, -1.#IND, -1.#IND
d3: -33.5081, 4.8768, -7.60693
d4: -26.0096, 3.15966, -4.37302
d1: -33.2191, 1.6256, -11.3792
d2: -1.#IND, -1.#IND, -1.#IND
d3: -33.4784, 4.8768, -7.62147
d4: -26.0096, 3.17718, -4.345
d1: -33.1875, 1.6256, -11.3792
d2: -1.#IND, -1.#IND, -1.#IND
d3: -33.4501, 4.8768, -7.63536
d4: -26.0096, 3.19391, -4.31822
d1: -33.1524, 1.6256, -11.3792
d2: -1.#IND, -1.#IND, -1.#IND
d3: -33.4186, 4.8768, -7.6508
d4: -26.0096, 3.21251, -4.28847
d1: -33.122, 1.6256, -11.3792
d2: -1.#IND, -1.#IND, -1.#IND
d3: -33.3912, 4.8768, -7.66418
d4: -26.0096, 3.22864, -4.26266
d1: -33.0882, 1.6256, -11.3792
d2: -1.#IND, -1.#IND, -1.#IND
d3: -33.3609, 4.8768, -7.67906
d4: -26.0096, 3.24656, -4.23398
d1: -33.0585, 1.6256, -11.3792
d2: -1.#IND, -1.#IND, -1.#IND
d3: -33.3342, 4.8768, -7.69211
d4: -26.0096, 3.26228, -4.20883
d1: -33.0283, 1.6256, -11.3792
d2: -1.#IND, -1.#IND, -1.#IND
d3: -33.3071, 4.8768, -7.70538
d4: -26.0096, 3.27828, -4.18323
d1: -32.9976, 1.6256, -11.3792
d2: -1.#IND, -1.#IND, -1.#IND
d3: -33.2795, 4.8768, -7.71891
d4: -26.0096, 3.29458, -4.15715
d1: -32.9679, 1.6256, -11.3792
d2: -1.#IND, -1.#IND, -1.#IND
d3: -33.2528, 4.8768, -7.73197
d4: -26.0096, 3.31032, -4.13197
d1: -32.938, 1.6256, -11.3792
d2: -1.#IND, -1.#IND, -1.#IND
d3: -33.226, 4.8768, -7.74513
d4: -26.0096, 3.32617, -4.10661
d1: -32.9085, 1.6256, -11.3792
d2: -1.#IND, -1.#IND, -1.#IND
d3: -33.1995, 4.8768, -7.7581
d4: -26.0096, 3.34181, -4.08159
d1: -32.8765, 1.6256, -11.3792
d2: -1.#IND, -1.#IND, -1.#IND
d3: -33.1707, 4.8768, -7.77219
d4: -26.0096, 3.35877, -4.05444
d1: -32.8469, 1.6256, -11.3792
d2: -1.#IND, -1.#IND, -1.#IND
d3: -33.1442, 4.8768, -7.78517
d4: -26.0096, 3.37442, -4.0294
d1: -32.8173, 1.6256, -11.3792
d2: -1.#IND, -1.#IND, -1.#IND
d3: -33.1176, 4.8768, -7.79819
d4: -26.0096, 3.3901, -4.00431
d1: -32.7881, 1.6256, -11.3792
d2: -1.#IND, -1.#IND, -1.#IND
d3: -33.0914, 4.8768, -7.81106
d4: -26.0096, 3.40561, -3.97951
d1: -32.7573, 1.6256, -11.3792
d2: -1.#IND, -1.#IND, -1.#IND
d3: -33.0637, 4.8768, -7.82461
d4: -26.0096, 3.42194, -3.95337
d1: -32.728, 1.6256, -11.3792
d2: -1.#IND, -1.#IND, -1.#IND
d3: -33.0374, 4.8768, -7.83747
d4: -26.0096, 3.43744, -3.92858
d1: -32.6987, 1.6256, -11.3792
d2: -1.#IND, -1.#IND, -1.#IND
d3: -33.011, 4.8768, -7.85039
d4: -26.0096, 3.453, -3.90367
d1: -32.6693, 1.6256, -11.3792
d2: -1.#IND, -1.#IND, -1.#IND
d3: -32.9846, 4.8768, -7.86332
d4: -26.0096, 3.46859, -3.87874
d1: -32.6393, 1.6256, -11.3792
d2: -1.#IND, -1.#IND, -1.#IND
d3: -32.9578, 4.8768, -7.87649
d4: -26.0096, 3.48445, -3.85336
d1: -32.6093, 1.6256, -11.3792
d2: -1.#IND, -1.#IND, -1.#IND
d3: -32.9308, 4.8768, -7.88968
d4: -26.0096, 3.50035, -3.82793
d1: -32.5794, 1.6256, -11.3792
d2: -1.#IND, -1.#IND, -1.#IND
d3: -32.9039, 4.8768, -7.90285
d4: -26.0096, 3.51622, -3.80253
d1: -32.5492, 1.6256, -11.3792
d2: -1.#IND, -1.#IND, -1.#IND
d3: -32.8768, 4.8768, -7.91613
d4: -26.0096, 3.53221, -3.77694
d1: -32.5177, 1.6256, -11.3792
d2: -1.#IND, -1.#IND, -1.#IND
d3: -32.8486, 4.8768, -7.92998
d4: -26.0096, 3.5489, -3.75024
d1: -32.487, 1.6256, -11.3792
d2: -1.#IND, -1.#IND, -1.#IND
d3: -32.8209, 4.8768, -7.94351
d4: -26.0096, 3.5652, -3.72415
d1: -32.4567, 1.6256, -11.3792
d2: -1.#IND, -1.#IND, -1.#IND
d3: -32.7937, 4.8768, -7.95684
d4: -26.0096, 3.58127, -3.69845
d1: -32.4262, 1.6256, -11.3792
d2: -1.#IND, -1.#IND, -1.#IND
d3: -32.7663, 4.8768, -7.97026
d4: -26.0096, 3.59743, -3.6726
d1: -32.3952, 1.6256, -11.3792
d2: -1.#IND, -1.#IND, -1.#IND
d3: -32.7385, 4.8768, -7.98386
d4: -26.0096, 3.61382, -3.64637
d1: -32.3646, 1.6256, -11.3792
d2: -1.#IND, -1.#IND, -1.#IND
d3: -32.7111, 4.8768, -7.99733
d4: -26.0096, 3.63005, -3.6204
d1: -32.3342, 1.6256, -11.3792
d2: -1.#IND, -1.#IND, -1.#IND
d3: -32.6838, 4.8768, -8.0107
d4: -26.0096, 3.64616, -3.59463
d1: -32.3038, 1.6256, -11.3792
d2: -1.#IND, -1.#IND, -1.#IND
d3: -32.6565, 4.8768, -8.02407
d4: -26.0096, 3.66227, -3.56884
d1: -32.2731, 1.6256, -11.3792
d2: -1.#IND, -1.#IND, -1.#IND
d3: -32.6288, 4.8768, -8.0376
d4: -26.0096, 3.67857, -3.54277
d1: -32.2424, 1.6256, -11.3792
d2: -1.#IND, -1.#IND, -1.#IND
d3: -32.6013, 4.8768, -8.05108
d4: -26.0096, 3.69482, -3.51677
d1: -32.212, 1.6256, -11.3792
d2: -1.#IND, -1.#IND, -1.#IND
d3: -32.574, 4.8768, -8.06444
d4: -26.0096, 3.71091, -3.49102
d1: -32.1815, 1.6256, -11.3792
d2: -1.#IND, -1.#IND, -1.#IND
d3: -32.5466, 4.8768, -8.07787
d4: -26.0096, 3.7271, -3.46513
d1: -32.1508, 1.6256, -11.3792
d2: -1.#IND, -1.#IND, -1.#IND
d3: -32.5191, 4.8768, -8.09137
d4: -26.0096, 3.74336, -3.4391
d1: -32.1203, 1.6256, -11.3792
d2: -1.#IND, -1.#IND, -1.#IND
d3: -32.4916, 4.8768, -8.10481
d4: -26.0096, 3.75955, -3.4132
d1: -32.0899, 1.6256, -11.3792
d2: -1.#IND, -1.#IND, -1.#IND
d3: -32.4644, 4.8768, -8.11816
d4: -26.0096, 3.77564, -3.38746
d1: -32.0594, 1.6256, -11.3792
d2: -1.#IND, -1.#IND, -1.#IND
d3: -32.4369, 4.8768, -8.13159
d4: -26.0096, 3.79182, -3.36157
d1: -32.029, 1.6256, -11.3792
d2: -1.#IND, -1.#IND, -1.#IND
d3: -32.4097, 4.8768, -8.14493
d4: -26.0096, 3.8079, -3.33585
d1: -31.9968, 1.6256, -11.3792
d2: -1.#IND, -1.#IND, -1.#IND
d3: -32.3807, 4.8768, -8.15911
d4: -26.0096, 3.82498, -3.30851
d1: -31.9658, 1.6256, -11.3792
d2: -1.#IND, -1.#IND, -1.#IND
d3: -32.3529, 4.8768, -8.17273
d4: -26.0096, 3.84139, -3.28225
d1: -31.9351, 1.6256, -11.3792
d2: -1.#IND, -1.#IND, -1.#IND
d3: -32.3253, 4.8768, -8.18626
d4: -26.0096, 3.85769, -3.25618
d1: -31.9046, 1.6256, -11.3792
d2: -1.#IND, -1.#IND, -1.#IND
d3: -32.2979, 4.8768, -8.19969
d4: -26.0096, 3.87388, -3.23028
d1: -31.8736, 1.6256, -11.3792
d2: -1.#IND, -1.#IND, -1.#IND
d3: -32.2701, 4.8768, -8.21329
d4: -26.0096, 3.89026, -3.20407
d1: -31.8425, 1.6256, -11.3792
d2: -1.#IND, -1.#IND, -1.#IND
d3: -32.2422, 4.8768, -8.22697
d4: -26.0096, 3.90675, -3.17768
d1: -31.8108, 1.6256, -11.3792
d2: -1.#IND, -1.#IND, -1.#IND
d3: -32.2137, 4.8768, -8.24093
d4: -26.0096, 3.92356, -3.15078
d1: -31.7796, 1.6256, -11.3792
d2: -1.#IND, -1.#IND, -1.#IND
d3: -32.1857, 4.8768, -8.25466
d4: -26.0096, 3.94011, -3.12431
d1: -31.7466, 1.6256, -11.3792
d2: -1.#IND, -1.#IND, -1.#IND
d3: -32.156, 4.8768, -8.26918
d4: -26.0096, 3.9576, -3.09632
d1: -31.7154, 1.6256, -11.3792
d2: -1.#IND, -1.#IND, -1.#IND
d3: -32.128, 4.8768, -8.28289
d4: -26.0096, 3.97413, -3.06988
d1: -31.684, 1.6256, -11.3792
d2: -1.#IND, -1.#IND, -1.#IND
d3: -32.0998, 4.8768, -8.29669
d4: -26.0096, 3.99076, -3.04327
d1: -31.6518, 1.6256, -11.3792
d2: -1.#IND, -1.#IND, -1.#IND
d3: -32.0709, 4.8768, -8.31089
d4: -26.0096, 4.00786, -3.01591
d1: -31.6203, 1.6256, -11.3792
d2: -1.#IND, -1.#IND, -1.#IND
d3: -32.0426, 4.8768, -8.32475
d4: -26.0096, 4.02456, -2.98919
d1: -31.5887, 1.6256, -11.3792
d2: -1.#IND, -1.#IND, -1.#IND
d3: -32.0142, 4.8768, -8.33863
d4: -26.0096, 4.04129, -2.96242
d1: -31.5568, 1.6256, -11.3792
d2: -1.#IND, -1.#IND, -1.#IND
d3: -31.9856, 4.8768, -8.35268
d4: -26.0096, 4.05821, -2.93535
d1: -31.5249, 1.6256, -11.3792
d2: -1.#IND, -1.#IND, -1.#IND
d3: -31.9569, 4.8768, -8.36669
d4: -26.0096, 4.07509, -2.90834
d1: -31.493, 1.6256, -11.3792
d2: -1.#IND, -1.#IND, -1.#IND
d3: -31.9283, 4.8768, -8.3807
d4: -26.0096, 4.09198, -2.88132
d1: -31.4614, 1.6256, -11.3792
d2: -1.#IND, -1.#IND, -1.#IND
d3: -31.8999, 4.8768, -8.39462
d4: -26.0096, 4.10875, -2.85448
d1: -31.4298, 1.6256, -11.3792
d2: -1.#IND, -1.#IND, -1.#IND
d3: -31.8715, 4.8768, -8.40852
d4: -26.0096, 4.1255, -2.82769
d1: -31.3983, 1.6256, -11.3792
d2: -1.#IND, -1.#IND, -1.#IND
d3: -31.8432, 4.8768, -8.42239
d4: -26.0096, 4.14221, -2.80094
d1: -31.3666, 1.6256, -11.3792
d2: -1.#IND, -1.#IND, -1.#IND
d3: -31.8148, 4.8768, -8.43631
d4: -26.0096, 4.15898, -2.77412
d1: -31.3349, 1.6256, -11.3792
d2: -1.#IND, -1.#IND, -1.#IND
d3: -31.7863, 4.8768, -8.45027
d4: -26.0096, 4.17581, -2.74719
d1: -31.3033, 1.6256, -11.3792
d2: -1.#IND, -1.#IND, -1.#IND
d3: -31.7579, 4.8768, -8.46416
d4: -26.0096, 4.19253, -2.72042
d1: -31.2717, 1.6256, -11.3792
d2: -1.#IND, -1.#IND, -1.#IND
d3: -31.7295, 4.8768, -8.47808
d4: -26.0096, 4.20931, -2.69359
d1: -31.2399, 1.6256, -11.3792
d2: -1.#IND, -1.#IND, -1.#IND
d3: -31.701, 4.8768, -8.49204
d4: -26.0096, 4.22613, -2.66667
d1: -31.2083, 1.6256, -11.3792
d2: -1.#IND, -1.#IND, -1.#IND
d3: -31.6726, 4.8768, -8.50594
d4: -26.0096, 4.24288, -2.63988
d1: -31.1769, 1.6256, -11.3792
d2: -1.#IND, -1.#IND, -1.#IND
d3: -31.6444, 4.8768, -8.51978
d4: -26.0096, 4.25955, -2.61319
d1: -31.1455, 1.6256, -11.3792
d2: -1.#IND, -1.#IND, -1.#IND
d3: -31.6162, 4.8768, -8.53358
d4: -26.0096, 4.27619, -2.58658
d1: -31.114, 1.6256, -11.3792
d2: -1.#IND, -1.#IND, -1.#IND
d3: -31.5879, 4.8768, -8.54745
d4: -26.0096, 4.2929, -2.55984
d1: -31.0825, 1.6256, -11.3792
d2: -1.#IND, -1.#IND, -1.#IND
d3: -31.5597, 4.8768, -8.56127
d4: -26.0096, 4.30954, -2.53322
d1: -31.0511, 1.6256, -11.3792
d2: -1.#IND, -1.#IND, -1.#IND
d3: -31.5314, 4.8768, -8.57512
d4: -26.0096, 4.32623, -2.50651
d1: -31.0192, 1.6256, -11.3792
d2: -1.#IND, -1.#IND, -1.#IND
d3: -31.5028, 4.8768, -8.58913
d4: -26.0096, 4.34311, -2.4795
d1: -30.9875, 1.6256, -11.3792
d2: -1.#IND, -1.#IND, -1.#IND
d3: -31.4743, 4.8768, -8.60307
d4: -26.0096, 4.35992, -2.45262
d1: -30.9557, 1.6256, -11.3792
d2: -1.#IND, -1.#IND, -1.#IND
d3: -31.4457, 4.8768, -8.61708
d4: -26.0096, 4.37679, -2.42561
d1: -30.924, 1.6256, -11.3792
d2: -1.#IND, -1.#IND, -1.#IND
d3: -31.4173, 4.8768, -8.631
d4: -26.0096, 4.39356, -2.39878
d1: -30.8922, 1.6256, -11.3792
d2: -1.#IND, -1.#IND, -1.#IND
d3: -31.3887, 4.8768, -8.645
d4: -26.0096, 4.41043, -2.37178
d1: -30.8607, 1.6256, -11.3792
d2: -1.#IND, -1.#IND, -1.#IND
d3: -31.3604, 4.8768, -8.65885
d4: -26.0096, 4.42712, -2.34508
d1: -30.829, 1.6256, -11.3792
d2: -1.#IND, -1.#IND, -1.#IND
d3: -31.332, 4.8768, -8.67278
d4: -26.0096, 4.44391, -2.31823
d1: -30.7973, 1.6256, -11.3792
d2: -1.#IND, -1.#IND, -1.#IND
d3: -31.3035, 4.8768, -8.68672
d4: -26.0096, 4.4607, -2.29136
d1: -30.7644, 1.6256, -11.3792
d2: -1.#IND, -1.#IND, -1.#IND
d3: -31.274, 4.8768, -8.70119
d4: -26.0096, 4.47814, -2.26346
d1: -30.7329, 1.6256, -11.3792
d2: -1.#IND, -1.#IND, -1.#IND
d3: -31.2456, 4.8768, -8.71508
d4: -26.0096, 4.49488, -2.23668
d1: -30.7013, 1.6256, -11.3792
d2: -1.#IND, -1.#IND, -1.#IND
d3: -31.2173, 4.8768, -8.72898
d4: -26.0096, 4.51162, -2.20989
d1: -30.6698, 1.6256, -11.3792
d2: -1.#IND, -1.#IND, -1.#IND
d3: -31.189, 4.8768, -8.74283
d4: -26.0096, 4.52831, -2.18319
d1: -30.6381, 1.6256, -11.3792
d2: -1.#IND, -1.#IND, -1.#IND
d3: -31.1606, 4.8768, -8.75676
d4: -26.0096, 4.54509, -2.15634
d1: -30.6065, 1.6256, -11.3792
d2: -1.#IND, -1.#IND, -1.#IND
d3: -31.1321, 4.8768, -8.77068
d4: -26.0096, 4.56186, -2.12951
d1: -30.5748, 1.6256, -11.3792
d2: -1.#IND, -1.#IND, -1.#IND
d3: -31.1037, 4.8768, -8.78459
d4: -26.0096, 4.57862, -2.10268
d1: -30.5433, 1.6256, -11.3792
d2: -1.#IND, -1.#IND, -1.#IND
d3: -31.0754, 4.8768, -8.79846
d4: -26.0096, 4.59534, -2.07594
d1: -30.5103, 1.6256, -11.3792
d2: -1.#IND, -1.#IND, -1.#IND
d3: -31.0458, 4.8768, -8.81299
d4: -26.0096, 4.61284, -2.04794
d1: -30.4785, 1.6256, -11.3792
d2: -1.#IND, -1.#IND, -1.#IND
d3: -31.0172, 4.8768, -8.82697
d4: -26.0096, 4.62969, -2.02098
d1: -30.4468, 1.6256, -11.3792
d2: -1.#IND, -1.#IND, -1.#IND
d3: -30.9888, 4.8768, -8.84089
d4: -26.0096, 4.64646, -1.99414
d1: -30.4154, 1.6256, -11.3792
d2: -1.#IND, -1.#IND, -1.#IND
d3: -30.9606, 4.8768, -8.85472
d4: -26.0096, 4.66312, -1.96749
d1: -30.3832, 1.6256, -11.3792
d2: -1.#IND, -1.#IND, -1.#IND
d3: -30.9316, 4.8768, -8.86887
d4: -26.0096, 4.68018, -1.94019
d1: -30.3514, 1.6256, -11.3792
d2: -1.#IND, -1.#IND, -1.#IND
d3: -30.903, 4.8768, -8.88289
d4: -26.0096, 4.69707, -1.91316
d1: -30.3196, 1.6256, -11.3792
d2: -1.#IND, -1.#IND, -1.#IND
d3: -30.8745, 4.8768, -8.89688
d4: -26.0096, 4.71392, -1.88621
d1: -30.2874, 1.6256, -11.3792
d2: -1.#IND, -1.#IND, -1.#IND
d3: -30.8456, 4.8768, -8.91101
d4: -26.0096, 4.73095, -1.85896
d1: -30.2538, 1.6256, -11.3792
d2: -1.#IND, -1.#IND, -1.#IND
d3: -30.8154, 4.8768, -8.92582
d4: -26.0096, 4.7488, -1.8304
d1: -30.2216, 1.6256, -11.3792
d2: -1.#IND, -1.#IND, -1.#IND
d3: -30.7865, 4.8768, -8.93996
d4: -26.0096, 4.76582, -1.80316
d1: -30.1891, 1.6256, -11.3792
d2: -1.#IND, -1.#IND, -1.#IND
d3: -30.7573, 4.8768, -8.95426
d4: -26.0096, 4.78306, -1.77558
d1: -30.157, 1.6256, -11.3792
d2: -1.#IND, -1.#IND, -1.#IND
d3: -30.7285, 4.8768, -8.9684
d4: -26.0096, 4.80009, -1.74833
d1: -30.1248, 1.6256, -11.3792
d2: -1.#IND, -1.#IND, -1.#IND
d3: -30.6996, 4.8768, -8.98253
d4: -26.0096, 4.81712, -1.72109
d1: -30.0929, 1.6256, -11.3792
d2: -1.#IND, -1.#IND, -1.#IND
d3: -30.6709, 4.8768, -8.9966
d4: -26.0096, 4.83407, -1.69396
d1: -30.0605, 1.6256, -11.3792
d2: -1.#IND, -1.#IND, -1.#IND
d3: -30.6418, 4.8768, -9.01082
d4: -26.0096, 4.85121, -1.66655
d1: -30.0276, 1.6256, -11.3792
d2: -1.#IND, -1.#IND, -1.#IND
d3: -30.6123, 4.8768, -9.02531
d4: -26.0096, 4.86867, -1.6386
d1: -29.9946, 1.6256, -11.3792
d2: -1.#IND, -1.#IND, -1.#IND
d3: -30.5827, 4.8768, -9.0398
d4: -26.0096, 4.8768, -1.6256
d1: -29.9621, 1.6256, -11.3792
d2: -1.#IND, -1.#IND, -1.#IND
d3: -30.5535, 4.8768, -9.0541
d4: -26.0387, 4.8768, -1.64014
d1: -29.9298, 1.6256, -11.3792
d2: -1.#IND, -1.#IND, -1.#IND
d3: -30.5245, 4.8768, -9.06832
d4: -26.0676, 4.8768, -1.65459
d1: -29.8974, 1.6256, -11.3792
d2: -1.#IND, -1.#IND, -1.#IND
d3: -30.4954, 4.8768, -9.08256
d4: -26.0965, 4.8768, -1.66907
d1: -29.8653, 1.6256, -11.3792
d2: -1.#IND, -1.#IND, -1.#IND
d3: -30.4665, 4.8768, -9.09671
d4: -26.1253, 4.8768, -1.68346
d1: -29.8329, 1.6256, -11.3792
d2: -1.#IND, -1.#IND, -1.#IND
d3: -30.4374, 4.8768, -9.11096
d4: -26.1543, 4.8768, -1.69795
d1: -29.8005, 1.6256, -11.3792
d2: -1.#IND, -1.#IND, -1.#IND
d3: -30.4084, 4.8768, -9.12518
d4: -26.1832, 4.8768, -1.7124
d1: -29.7669, 1.6256, -11.3792
d2: -1.#IND, -1.#IND, -1.#IND
d3: -30.3782, 4.8768, -9.13997
d4: -26.2133, 4.8768, -1.72745
d1: -29.7346, 1.6256, -11.3792
d2: -1.#IND, -1.#IND, -1.#IND
d3: -30.3491, 4.8768, -9.15419
d4: -26.2422, 4.8768, -1.7419
d1: -29.7023, 1.6256, -11.3792
d2: -1.#IND, -1.#IND, -1.#IND
d3: -30.3202, 4.8768, -9.16838
d4: -26.2711, 4.8768, -1.75633
d1: -29.6702, 1.6256, -11.3792
d2: -1.#IND, -1.#IND, -1.#IND
d3: -30.2913, 4.8768, -9.18251
d4: -26.2998, 4.8768, -1.77069
d1: -29.638, 1.6256, -11.3792
d2: -1.#IND, -1.#IND, -1.#IND
d3: -30.2624, 4.8768, -9.19669
d4: -26.3286, 4.8768, -1.78511
d1: -29.6061, 1.6256, -11.3792
d2: -1.#IND, -1.#IND, -1.#IND
d3: -30.2338, 4.8768, -9.21069
d4: -26.3571, 4.8768, -1.79934
d1: -29.5743, 1.6256, -11.3792
d2: -1.#IND, -1.#IND, -1.#IND
d3: -30.2052, 4.8768, -9.22471
d4: -26.3856, 4.8768, -1.81359
d1: -29.5424, 1.6256, -11.3792
d2: -1.#IND, -1.#IND, -1.#IND
d3: -30.1765, 4.8768, -9.23874
d4: -26.4141, 4.8768, -1.82786
d1: -29.509, 1.6256, -11.3792
d2: -1.#IND, -1.#IND, -1.#IND
d3: -30.1465, 4.8768, -9.25343
d4: -26.444, 4.8768, -1.8428
d1: -29.4772, 1.6256, -11.3792
d2: -1.#IND, -1.#IND, -1.#IND
d3: -30.1179, 4.8768, -9.26742
d4: -26.4724, 4.8768, -1.85702
d1: -29.4455, 1.6256, -11.3792
d2: -1.#IND, -1.#IND, -1.#IND
d3: -30.0895, 4.8768, -9.28136
d4: -26.5008, 4.8768, -1.8712
d1: -29.4138, 1.6256, -11.3792
d2: -1.#IND, -1.#IND, -1.#IND
d3: -30.0611, 4.8768, -9.29528
d4: -26.5291, 4.8768, -1.88534
d1: -29.3822, 1.6256, -11.3792
d2: -1.#IND, -1.#IND, -1.#IND
d3: -30.0327, 4.8768, -9.3092
d4: -26.5574, 4.8768, -1.8995
d1: -29.3506, 1.6256, -11.3792
d2: -1.#IND, -1.#IND, -1.#IND
d3: -30.0043, 4.8768, -9.32309
d4: -26.5857, 4.8768, -1.91363
d1: -29.3187, 1.6256, -11.3792
d2: -1.#IND, -1.#IND, -1.#IND
d3: -29.9757, 4.8768, -9.33711
d4: -26.6142, 4.8768, -1.92788
d1: -29.2871, 1.6256, -11.3792
d2: -1.#IND, -1.#IND, -1.#IND
d3: -29.9473, 4.8768, -9.35101
d4: -26.6424, 4.8768, -1.94201
d1: -29.2537, 1.6256, -11.3792
d2: -1.#IND, -1.#IND, -1.#IND
d3: -29.9173, 4.8768, -9.36571
d4: -26.6723, 4.8768, -1.95695
d1: -29.2218, 1.6256, -11.3792
d2: -1.#IND, -1.#IND, -1.#IND
d3: -29.8886, 4.8768, -9.37976
d4: -26.7009, 4.8768, -1.97123
d1: -29.1901, 1.6256, -11.3792
d2: -1.#IND, -1.#IND, -1.#IND
d3: -29.8601, 4.8768, -9.39371
d4: -26.7292, 4.8768, -1.98542
d1: -29.1585, 1.6256, -11.3792
d2: -1.#IND, -1.#IND, -1.#IND
d3: -29.8318, 4.8768, -9.40759
d4: -26.7575, 4.8768, -1.99953
d1: -29.1267, 1.6256, -11.3792
d2: -1.#IND, -1.#IND, -1.#IND
d3: -29.8032, 4.8768, -9.42157
d4: -26.7859, 4.8768, -2.01374
d1: -29.095, 1.6256, -11.3792
d2: -1.#IND, -1.#IND, -1.#IND
d3: -29.7747, 4.8768, -9.43553
d4: -26.8143, 4.8768, -2.02794
d1: -29.0633, 1.6256, -11.3792
d2: -1.#IND, -1.#IND, -1.#IND
d3: -29.7463, 4.8768, -9.44945
d4: -26.8426, 4.8768, -2.04209
d1: -29.0316, 1.6256, -11.3792
d2: -1.#IND, -1.#IND, -1.#IND
d3: -29.7178, 4.8768, -9.46343
d4: -26.871, 4.8768, -2.05631
d1: -28.9984, 1.6256, -11.3792
d2: -1.#IND, -1.#IND, -1.#IND
d3: -29.688, 4.8768, -9.478
d4: -26.9006, 4.8768, -2.07112
d1: -28.9668, 1.6256, -11.3792
d2: -1.#IND, -1.#IND, -1.#IND
d3: -29.6596, 4.8768, -9.49192
d4: -26.9289, 4.8768, -2.08527
d1: -28.9344, 1.6256, -11.3792
d2: -1.#IND, -1.#IND, -1.#IND
d3: -29.6305, 4.8768, -9.50618
d4: -26.9579, 4.8768, -2.09977
d1: -28.9027, 1.6256, -11.3792
d2: -1.#IND, -1.#IND, -1.#IND
d3: -29.602, 4.8768, -9.52013
d4: -26.9863, 4.8768, -2.11395
d1: -28.871, 1.6256, -11.3792
d2: -1.#IND, -1.#IND, -1.#IND
d3: -29.5735, 4.8768, -9.53407
d4: -27.0146, 4.8768, -2.12812
d1: -28.839, 1.6256, -11.3792
d2: -1.#IND, -1.#IND, -1.#IND
d3: -29.5449, 4.8768, -9.54811
d4: -27.0432, 4.8768, -2.1424
d1: -28.807, 1.6256, -11.3792
d2: -1.#IND, -1.#IND, -1.#IND
d3: -29.5161, 4.8768, -9.5622
d4: -27.0719, 4.8768, -2.15673
d1: -28.7751, 1.6256, -11.3792
d2: -1.#IND, -1.#IND, -1.#IND
d3: -29.4874, 4.8768, -9.57624
d4: -27.1004, 4.8768, -2.171
d1: -28.7432, 1.6256, -11.3792
d2: -1.#IND, -1.#IND, -1.#IND
d3: -29.4588, 4.8768, -9.59029
d4: -27.129, 4.8768, -2.18528
d1: -28.7112, 1.6256, -11.3792
d2: -1.#IND, -1.#IND, -1.#IND
d3: -29.43, 4.8768, -9.60436
d4: -27.1576, 4.8768, -2.19959
d1: -28.6795, 1.6256, -11.3792
d2: -1.#IND, -1.#IND, -1.#IND
d3: -29.4016, 4.8768, -9.61829
d4: -27.1859, 4.8768, -2.21375
d1: -28.6478, 1.6256, -11.3792
d2: -1.#IND, -1.#IND, -1.#IND
d3: -29.3732, 4.8768, -9.63222
d4: -27.2142, 4.8768, -2.22791
d1: -28.6162, 1.6256, -11.3792
d2: -1.#IND, -1.#IND, -1.#IND
d3: -29.3447, 4.8768, -9.64614
d4: -27.2425, 4.8768, -2.24207
d1: -28.5844, 1.6256, -11.3792
d2: -1.#IND, -1.#IND, -1.#IND
d3: -29.3162, 4.8768, -9.66013
d4: -27.271, 4.8768, -2.25628
d1: -28.5518, 1.6256, -11.3792
d2: -1.#IND, -1.#IND, -1.#IND
d3: -29.2869, 4.8768, -9.67446
d4: -27.3001, 4.8768, -2.27086
d1: -28.5165, 1.6256, -11.3792
d2: -1.#IND, -1.#IND, -1.#IND
d3: -29.2552, 4.8768, -9.68997
d4: -27.3317, 4.8768, -2.28663
d1: -28.4845, 1.6256, -11.3792
d2: -1.#IND, -1.#IND, -1.#IND
d3: -29.2265, 4.8768, -9.70405
d4: -27.3603, 4.8768, -2.30095
d1: -28.4529, 1.6256, -11.3792
d2: -1.#IND, -1.#IND, -1.#IND
d3: -29.1981, 4.8768, -9.71798
d4: -27.3886, 4.8768, -2.3151
d1: -28.4214, 1.6256, -11.3792
d2: -1.#IND, -1.#IND, -1.#IND
d3: -29.1698, 4.8768, -9.73184
d4: -27.4168, 4.8768, -2.3292
d1: -28.3896, 1.6256, -11.3792
d2: -1.#IND, -1.#IND, -1.#IND
d3: -29.1413, 4.8768, -9.74579
d4: -27.4452, 4.8768, -2.34338
d1: -28.358, 1.6256, -11.3792
d2: -1.#IND, -1.#IND, -1.#IND
d3: -29.1129, 4.8768, -9.75971
d4: -27.4735, 4.8768, -2.35753
d1: -28.3265, 1.6256, -11.3792
d2: -1.#IND, -1.#IND, -1.#IND
d3: -29.0846, 4.8768, -9.77357
d4: -27.5017, 4.8768, -2.37163
d1: -28.2949, 1.6256, -11.3792
d2: -1.#IND, -1.#IND, -1.#IND
d3: -29.0562, 4.8768, -9.78745
d4: -27.5299, 4.8768, -2.38573
d1: -28.2618, 1.6256, -11.3792
d2: -1.#IND, -1.#IND, -1.#IND
d3: -29.0265, 4.8768, -9.80202
d4: -27.5595, 4.8768, -2.40055
d1: -28.2302, 1.6256, -11.3792
d2: -1.#IND, -1.#IND, -1.#IND
d3: -28.9981, 4.8768, -9.81593
d4: -27.5878, 4.8768, -2.41469
d1: -28.1986, 1.6256, -11.3792
d2: -1.#IND, -1.#IND, -1.#IND
d3: -28.9697, 4.8768, -9.82982
d4: -27.616, 4.8768, -2.42881
d1: -28.1669, 1.6256, -11.3792
d2: -1.#IND, -1.#IND, -1.#IND
d3: -28.9413, 4.8768, -9.84375
d4: -27.6443, 4.8768, -2.44297
d1: -28.1354, 1.6256, -11.3792
d2: -1.#IND, -1.#IND, -1.#IND
d3: -28.9129, 4.8768, -9.85763
d4: -27.6726, 4.8768, -2.45709
d1: -28.1039, 1.6256, -11.3792
d2: -1.#IND, -1.#IND, -1.#IND
d3: -28.8847, 4.8768, -9.87147
d4: -27.7007, 4.8768, -2.47116
d1: -28.0722, 1.6256, -11.3792
d2: -1.#IND, -1.#IND, -1.#IND
d3: -28.8562, 4.8768, -9.88543
d4: -27.7291, 4.8768, -2.48535
d1: -28.0406, 1.6256, -11.3792
d2: -1.#IND, -1.#IND, -1.#IND
d3: -28.8278, 4.8768, -9.89932
d4: -27.7573, 4.8768, -2.49947
d1: -28.0077, 1.6256, -11.3792
d2: -1.#IND, -1.#IND, -1.#IND
d3: -28.7982, 4.8768, -9.91381
d4: -27.7868, 4.8768, -2.51421
d1: -27.976, 1.6256, -11.3792
d2: -1.#IND, -1.#IND, -1.#IND
d3: -28.7698, 4.8768, -9.92776
d4: -27.8152, 4.8768, -2.52838
d1: -27.9439, 1.6256, -11.3792
d2: -1.#IND, -1.#IND, -1.#IND
d3: -28.741, 4.8768, -9.94184
d4: -27.8438, 4.8768, -2.5427
d1: -27.9123, 1.6256, -11.3792
d2: -1.#IND, -1.#IND, -1.#IND
d3: -28.7126, 4.8768, -9.95574
d4: -27.8721, 4.8768, -2.55683
d1: -27.8808, 1.6256, -11.3792
d2: -1.#IND, -1.#IND, -1.#IND
d3: -28.6843, 4.8768, -9.96963
d4: -27.9003, 4.8768, -2.57095
d1: -27.8491, 1.6256, -11.3792
d2: -1.#IND, -1.#IND, -1.#IND
d3: -28.6559, 4.8768, -9.98354
d4: -27.9286, 4.8768, -2.5851
d1: -27.817, 1.6256, -11.3792
d2: -1.#IND, -1.#IND, -1.#IND
d3: -28.627, 4.8768, -9.99769
d4: -27.9574, 4.8768, -2.59949
d1: -27.7853, 1.6256, -11.3792
d2: -1.#IND, -1.#IND, -1.#IND
d3: -28.5986, 4.8768, -10.0116
d4: -27.9857, 4.8768, -2.61363
d1: -27.7521, 1.6256, -11.3792
d2: -1.#IND, -1.#IND, -1.#IND
d3: -28.5688, 4.8768, -10.0262
d4: -28.0154, 4.8768, -2.62848
d1: -27.7205, 1.6256, -11.3792
d2: -1.#IND, -1.#IND, -1.#IND
d3: -28.5403, 4.8768, -10.0401
d4: -28.0437, 4.8768, -2.64265
d1: -27.6889, 1.6256, -11.3792
d2: -1.#IND, -1.#IND, -1.#IND
d3: -28.512, 4.8768, -10.054
d4: -28.0719, 4.8768, -2.65677
d1: -27.6572, 1.6256, -11.3792
d2: -1.#IND, -1.#IND, -1.#IND
d3: -28.4835, 4.8768, -10.0679
d4: -28.1002, 4.8768, -2.67092
d1: -27.6255, 1.6256, -11.3792
d2: -1.#IND, -1.#IND, -1.#IND
d3: -28.455, 4.8768, -10.0819
d4: -28.1286, 4.8768, -2.68512
d1: -27.5939, 1.6256, -11.3792
d2: -1.#IND, -1.#IND, -1.#IND
d3: -28.4266, 4.8768, -10.0958
d4: -28.1569, 4.8768, -2.69925
d1: -27.5622, 1.6256, -11.3792
d2: -1.#IND, -1.#IND, -1.#IND
d3: -28.3982, 4.8768, -10.1097
d4: -28.1852, 4.8768, -2.71342
d1: -27.5305, 1.6256, -11.3792
d2: -1.#IND, -1.#IND, -1.#IND
d3: -28.3697, 4.8768, -10.1237
d4: -28.2136, 4.8768, -2.7276
d1: -27.4975, 1.6256, -11.3792
d2: -1.#IND, -1.#IND, -1.#IND
d3: -28.3401, 4.8768, -10.1382
d4: -28.2431, 4.8768, -2.74237
d1: -27.4657, 1.6256, -11.3792
d2: -1.#IND, -1.#IND, -1.#IND
d3: -28.3115, 4.8768, -10.1522
d4: -28.2715, 4.8768, -2.75657
d1: -27.434, 1.6256, -11.3792
d2: -1.#IND, -1.#IND, -1.#IND
d3: -28.283, 4.8768, -10.1662
d4: -28.3, 4.8768, -2.77078
d1: -27.4023, 1.6256, -11.3792
d2: -1.#IND, -1.#IND, -1.#IND
d3: -28.2546, 4.8768, -10.1801
d4: -28.3282, 4.8768, -2.78492
d1: -27.3707, 1.6256, -11.3792
d2: -1.#IND, -1.#IND, -1.#IND
d3: -28.2262, 4.8768, -10.194
d4: -28.3565, 4.8768, -2.79905
d1: -27.3391, 1.6256, -11.3792
d2: -1.#IND, -1.#IND, -1.#IND
d3: -28.1978, 4.8768, -10.2079
d4: -28.3848, 4.8768, -2.81319
d1: -27.3076, 1.6256, -11.3792
d2: -1.#IND, -1.#IND, -1.#IND
d3: -28.1695, 4.8768, -10.2217
d4: -28.413, 4.8768, -2.82729
d1: -27.2755, 1.6256, -11.3792
d2: -1.#IND, -1.#IND, -1.#IND
d3: -28.1407, 4.8768, -10.2359
d4: -28.4417, 4.8768, -2.84163
d1: -27.2437, 1.6256, -11.3792
d2: -1.#IND, -1.#IND, -1.#IND
d3: -28.1121, 4.8768, -10.2499
d4: -28.4701, 4.8768, -2.85587
d1: -27.2121, 1.6256, -11.3792
d2: -1.#IND, -1.#IND, -1.#IND
d3: -28.0838, 4.8768, -10.2638
d4: -28.4984, 4.8768, -2.87
d1: -27.1805, 1.6256, -11.3792
d2: -1.#IND, -1.#IND, -1.#IND
d3: -28.0554, 4.8768, -10.2777
d4: -28.5267, 4.8768, -2.88414
d1: -27.1485, 1.6256, -11.3792
d2: -1.#IND, -1.#IND, -1.#IND
d3: -28.0267, 4.8768, -10.2917
d4: -28.5553, 4.8768, -2.89843
d1: -27.1169, 1.6256, -11.3792
d2: -1.#IND, -1.#IND, -1.#IND
d3: -27.9982, 4.8768, -10.3056
d4: -28.5836, 4.8768, -2.91259
d1: -27.0853, 1.6256, -11.3792
d2: -1.#IND, -1.#IND, -1.#IND
d3: -27.9699, 4.8768, -10.3195
d4: -28.6118, 4.8768, -2.92672
d1: -27.0537, 1.6256, -11.3792
d2: -1.#IND, -1.#IND, -1.#IND
d3: -27.9415, 4.8768, -10.3334
d4: -28.6401, 4.8768, -2.94085
d1: -27.0219, 1.6256, -11.3792
d2: -1.#IND, -1.#IND, -1.#IND
d3: -27.913, 4.8768, -10.3474
d4: -28.6685, 4.8768, -2.95503
d1: -26.9901, 1.6256, -11.3792
d2: -1.#IND, -1.#IND, -1.#IND
d3: -27.8844, 4.8768, -10.3614
d4: -28.6969, 4.8768, -2.96927
d1: -26.9583, 1.6256, -11.3792
d2: -1.#IND, -1.#IND, -1.#IND
d3: -27.8559, 4.8768, -10.3754
d4: -28.7254, 4.8768, -2.98348
d1: -26.9266, 1.6256, -11.3792
d2: -1.#IND, -1.#IND, -1.#IND
d3: -27.8274, 4.8768, -10.3893
d4: -28.7537, 4.8768, -2.99767
d1: -26.895, 1.6256, -11.3792
d2: -1.#IND, -1.#IND, -1.#IND
d3: -27.799, 4.8768, -10.4032
d4: -28.782, 4.8768, -3.01178
d1: -26.8633, 1.6256, -11.3792
d2: -1.#IND, -1.#IND, -1.#IND
d3: -27.7706, 4.8768, -10.4172
d4: -28.8103, 4.8768, -3.02596
d1: -26.8315, 1.6256, -11.3792
d2: -1.#IND, -1.#IND, -1.#IND
d3: -27.7419, 4.8768, -10.4312
d4: -28.8388, 4.8768, -3.04022
d1: -26.7998, 1.6256, -11.3792
d2: -1.#IND, -1.#IND, -1.#IND
d3: -27.7135, 4.8768, -10.4451
d4: -28.8672, 4.8768, -3.05438
d1: -26.7668, 1.6256, -11.3792
d2: -1.#IND, -1.#IND, -1.#IND
d3: -27.6838, 4.8768, -10.4596
d4: -28.8967, 4.8768, -3.06916
d1: -26.7348, 1.6256, -11.3792
d2: -1.#IND, -1.#IND, -1.#IND
d3: -27.6551, 4.8768, -10.4737
d4: -28.9253, 4.8768, -3.08346
d1: -26.7031, 1.6256, -11.3792
d2: -1.#IND, -1.#IND, -1.#IND
d3: -27.6267, 4.8768, -10.4876
d4: -28.9536, 4.8768, -3.0976
d1: -26.6716, 1.6256, -11.3792
d2: -1.#IND, -1.#IND, -1.#IND
d3: -27.5984, 4.8768, -10.5015
d4: -28.9818, 4.8768, -3.11171
d1: -26.6394, 1.6256, -11.3792
d2: -1.#IND, -1.#IND, -1.#IND
d3: -27.5694, 4.8768, -10.5157
d4: -29.0106, 4.8768, -3.12612
d1: -26.6076, 1.6256, -11.3792
d2: -1.#IND, -1.#IND, -1.#IND
d3: -27.5409, 4.8768, -10.5297
d4: -29.0391, 4.8768, -3.14034
d1: -26.5759, 1.6256, -11.3792
d2: -1.#IND, -1.#IND, -1.#IND
d3: -27.5124, 4.8768, -10.5436
d4: -29.0674, 4.8768, -3.15452
d1: -26.5441, 1.6256, -11.3792
d2: -1.#IND, -1.#IND, -1.#IND
d3: -27.4839, 4.8768, -10.5576
d4: -29.0959, 4.8768, -3.16873
d1: -26.5108, 1.6256, -11.3792
d2: -1.#IND, -1.#IND, -1.#IND
d3: -27.454, 4.8768, -10.5722
d4: -29.1256, 4.8768, -3.1836
d1: -26.4792, 1.6256, -11.3792
d2: -1.#IND, -1.#IND, -1.#IND
d3: -27.4256, 4.8768, -10.5861
d4: -29.1539, 4.8768, -3.19776
d1: -26.4475, 1.6256, -11.3792
d2: -1.#IND, -1.#IND, -1.#IND
d3: -27.3971, 4.8768, -10.6001
d4: -29.1823, 4.8768, -3.21194
d1: -26.4157, 1.6256, -11.3792
d2: -1.#IND, -1.#IND, -1.#IND
d3: -27.3686, 4.8768, -10.614
d4: -29.2107, 4.8768, -3.22613
d1: -26.3841, 1.6256, -11.3792
d2: -1.#IND, -1.#IND, -1.#IND
d3: -27.3401, 4.8768, -10.628
d4: -29.239, 4.8768, -3.2403
d1: -26.3524, 1.6256, -11.3792
d2: -1.#IND, -1.#IND, -1.#IND
d3: -27.3118, 4.8768, -10.6419
d4: -29.2673, 4.8768, -3.25444
d1: -26.3207, 1.6256, -11.3792
d2: -1.#IND, -1.#IND, -1.#IND
d3: -27.2832, 4.8768, -10.6559
d4: -29.2957, 4.8768, -3.26864
d1: -26.2891, 1.6256, -11.3792
d2: -1.#IND, -1.#IND, -1.#IND
d3: -27.2549, 4.8768, -10.6697
d4: -29.3239, 4.8768, -3.28275
d1: -26.2561, 1.6256, -11.3792
d2: -1.#IND, -1.#IND, -1.#IND
d3: -27.2252, 4.8768, -10.6843
d4: -29.3535, 4.8768, -3.29753
d1: -26.2245, 1.6256, -11.3792
d2: -1.#IND, -1.#IND, -1.#IND
d3: -27.1968, 4.8768, -10.6982
d4: -29.3817, 4.8768, -3.31167
d1: -26.1927, 1.6256, -11.3792
d2: -1.#IND, -1.#IND, -1.#IND
d3: -27.1683, 4.8768, -10.7122
d4: -29.4102, 4.8768, -3.3259
d1: -26.1611, 1.6256, -11.3792
d2: -1.#IND, -1.#IND, -1.#IND
d3: -27.1399, 4.8768, -10.7261
d4: -29.4384, 4.8768, -3.34002
d1: -26.1294, 1.6256, -11.3792
d2: -1.#IND, -1.#IND, -1.#IND
d3: -27.1115, 4.8768, -10.74
d4: -29.4667, 4.8768, -3.35417
d1: -26.0978, 1.6256, -11.3792
d2: -1.#IND, -1.#IND, -1.#IND
d3: -27.0831, 4.8768, -10.7539
d4: -29.495, 4.8768, -3.36832
d1: -26.0661, 1.6256, -11.3792
d2: -1.#IND, -1.#IND, -1.#IND
d3: -27.0546, 4.8768, -10.7678
d4: -29.5234, 4.8768, -3.38248
d1: -26.0346, 1.6256, -11.3792
d2: -1.#IND, -1.#IND, -1.#IND
d3: -27.0263, 4.8768, -10.7817
d4: -29.5516, 4.8768, -3.39659
d1: -26.0096, 1.6256, -11.3792
d2: -1.#IND, -1.#IND, -1.#IND
d3: -26.9963, 4.8768, -10.7964
d4: -29.5815, 4.8768, -3.41155
d1: -1.#IND, -1.#IND, -1.#IND
d2: -1.#IND, -1.#IND, -1.#IND
d3: -26.9677, 4.8768, -10.8104
d4: -29.6099, 4.8768, -3.42576
d1: -1.#IND, -1.#IND, -1.#IND
d2: -1.#IND, -1.#IND, -1.#IND
d3: -26.9391, 4.8768, -10.8244
d4: -29.6385, 4.8768, -3.44003
d1: -1.#IND, -1.#IND, -1.#IND
d2: -1.#IND, -1.#IND, -1.#IND
d3: -26.9107, 4.8768, -10.8383
d4: -29.6667, 4.8768, -3.45415
d1: -1.#IND, -1.#IND, -1.#IND
d2: -1.#IND, -1.#IND, -1.#IND
d3: -26.8822, 4.8768, -10.8523
d4: -29.6951, 4.8768, -3.46836
d1: -1.#IND, -1.#IND, -1.#IND
d2: -1.#IND, -1.#IND, -1.#IND
d3: -26.8539, 4.8768, -10.8661
d4: -29.7233, 4.8768, -3.48244
d1: -1.#IND, -1.#IND, -1.#IND
d2: -1.#IND, -1.#IND, -1.#IND
d3: -26.8251, 4.8768, -10.8803
d4: -29.752, 4.8768, -3.49679
d1: -1.#IND, -1.#IND, -1.#IND
d2: -1.#IND, -1.#IND, -1.#IND
d3: -26.7967, 4.8768, -10.8942
d4: -29.7803, 4.8768, -3.51093
d1: -1.#IND, -1.#IND, -1.#IND
d2: -1.#IND, -1.#IND, -1.#IND
d3: -26.7669, 4.8768, -10.9088
d4: -29.8099, 4.8768, -3.52577
d1: -1.#IND, -1.#IND, -1.#IND
d2: -1.#IND, -1.#IND, -1.#IND
d3: -26.7386, 4.8768, -10.9226
d4: -29.8381, 4.8768, -3.53987
d1: -1.#IND, -1.#IND, -1.#IND
d2: -1.#IND, -1.#IND, -1.#IND
d3: -26.7101, 4.8768, -10.9366
d4: -29.8665, 4.8768, -3.55405
d1: -1.#IND, -1.#IND, -1.#IND
d2: -1.#IND, -1.#IND, -1.#IND
d3: -26.6818, 4.8768, -10.9505
d4: -29.8947, 4.8768, -3.56816
d1: -1.#IND, -1.#IND, -1.#IND
d2: -1.#IND, -1.#IND, -1.#IND
d3: -26.6533, 4.8768, -10.9644
d4: -29.9231, 4.8768, -3.58233
d1: -1.#IND, -1.#IND, -1.#IND
d2: -1.#IND, -1.#IND, -1.#IND
d3: -26.625, 4.8768, -10.9783
d4: -29.9513, 4.8768, -3.59645
d1: -1.#IND, -1.#IND, -1.#IND
d2: -1.#IND, -1.#IND, -1.#IND
d3: -26.5965, 4.8768, -10.9922
d4: -29.9796, 4.8768, -3.6106
d1: -1.#IND, -1.#IND, -1.#IND
d2: -1.#IND, -1.#IND, -1.#IND
d3: -26.568, 4.8768, -11.0062
d4: -30.008, 4.8768, -3.62482
d1: -1.#IND, -1.#IND, -1.#IND
d2: -1.#IND, -1.#IND, -1.#IND
d3: -26.5395, 4.8768, -11.0202
d4: -30.0365, 4.8768, -3.63903
d1: -1.#IND, -1.#IND, -1.#IND
d2: -1.#IND, -1.#IND, -1.#IND
d3: -26.511, 4.8768, -11.0341
d4: -30.0648, 4.8768, -3.65318
d1: -1.#IND, -1.#IND, -1.#IND
d2: -1.#IND, -1.#IND, -1.#IND
d3: -26.4827, 4.8768, -11.0479
d4: -30.0929, 4.8768, -3.66727
d1: -1.#IND, -1.#IND, -1.#IND
d2: -1.#IND, -1.#IND, -1.#IND
d3: -26.4545, 4.8768, -11.0618
d4: -30.1211, 4.8768, -3.68134
d1: -1.#IND, -1.#IND, -1.#IND
d2: -1.#IND, -1.#IND, -1.#IND
d3: -26.4261, 4.8768, -11.0757
d4: -30.1493, 4.8768, -3.69546
d1: -1.#IND, -1.#IND, -1.#IND
d2: -1.#IND, -1.#IND, -1.#IND
d3: -26.3979, 4.8768, -11.0895
d4: -30.1774, 4.8768, -3.70951
d1: -1.#IND, -1.#IND, -1.#IND
d2: -1.#IND, -1.#IND, -1.#IND
d3: -26.3696, 4.8768, -11.1033
d4: -30.2056, 4.8768, -3.72359
d1: -1.#IND, -1.#IND, -1.#IND
d2: -1.#IND, -1.#IND, -1.#IND
d3: -26.3412, 4.8768, -11.1172
d4: -30.2339, 4.8768, -3.73773
d1: -1.#IND, -1.#IND, -1.#IND
d2: -1.#IND, -1.#IND, -1.#IND
d3: -26.3127, 4.8768, -11.1312
d4: -30.2623, 4.8768, -3.75196
d1: -1.#IND, -1.#IND, -1.#IND
d2: -1.#IND, -1.#IND, -1.#IND
d3: -26.2843, 4.8768, -11.1451
d4: -30.2906, 4.8768, -3.76609
d1: -1.#IND, -1.#IND, -1.#IND
d2: -1.#IND, -1.#IND, -1.#IND
d3: -26.256, 4.8768, -11.159
d4: -30.3188, 4.8768, -3.78019
d1: -1.#IND, -1.#IND, -1.#IND
d2: -1.#IND, -1.#IND, -1.#IND
d3: -26.2275, 4.8768, -11.1729
d4: -30.3471, 4.8768, -3.79435
d1: -1.#IND, -1.#IND, -1.#IND
d2: -1.#IND, -1.#IND, -1.#IND
d3: -26.1992, 4.8768, -11.1868
d4: -30.3753, 4.8768, -3.80845
d1: -1.#IND, -1.#IND, -1.#IND
d2: -1.#IND, -1.#IND, -1.#IND
d3: -26.1709, 4.8768, -11.2007
d4: -30.4036, 4.8768, -3.82258
d1: -1.#IND, -1.#IND, -1.#IND
d2: -1.#IND, -1.#IND, -1.#IND
d3: -26.1424, 4.8768, -11.2146
d4: -30.4319, 4.8768, -3.83674
d1: -1.#IND, -1.#IND, -1.#IND
d2: -1.#IND, -1.#IND, -1.#IND
d3: -26.1133, 4.8768, -11.2289
d4: -30.4609, 4.8768, -3.85125
d1: -1.#IND, -1.#IND, -1.#IND
d2: -1.#IND, -1.#IND, -1.#IND
d3: -26.0847, 4.8768, -11.2429
d4: -30.4894, 4.8768, -3.86551
d1: -1.#IND, -1.#IND, -1.#IND
d2: -1.#IND, -1.#IND, -1.#IND
d3: -26.0561, 4.8768, -11.2569
d4: -30.5179, 4.8768, -3.87974
d1: -1.#IND, -1.#IND, -1.#IND
d2: -1.#IND, -1.#IND, -1.#IND
d3: -26.0274, 4.8768, -11.271
d4: -30.5465, 4.8768, -3.89403
d1: -1.#IND, -1.#IND, -1.#IND
d2: -1.#IND, -1.#IND, -1.#IND
d3: -25.999, 4.8768, -11.2849
d4: -30.5747, 4.8768, -3.90817
d1: -1.#IND, -1.#IND, -1.#IND
d2: -1.#IND, -1.#IND, -1.#IND
d3: -25.9705, 4.8768, -11.2988
d4: -30.6031, 4.8768, -3.92233
d1: -1.#IND, -1.#IND, -1.#IND
d2: -1.#IND, -1.#IND, -1.#IND
d3: -25.9415, 4.8768, -11.313
d4: -30.632, 4.8768, -3.9368
d1: -1.#IND, -1.#IND, -1.#IND
d2: -1.#IND, -1.#IND, -1.#IND
d3: -25.913, 4.8768, -11.327
d4: -30.6604, 4.8768, -3.95099
d1: -1.#IND, -1.#IND, -1.#IND
d2: -1.#IND, -1.#IND, -1.#IND
d3: -25.8819, 4.8768, -11.3422
d4: -30.6913, 4.8768, -3.96646
d1: -1.#IND, -1.#IND, -1.#IND
d2: -1.#IND, -1.#IND, -1.#IND
d3: -25.8531, 4.8768, -11.3563
d4: -30.72, 4.8768, -3.98079
d1: -1.#IND, -1.#IND, -1.#IND
d2: -1.#IND, -1.#IND, -1.#IND
d3: -25.8246, 4.8768, -11.3703
d4: -30.7484, 4.8768, -3.99502
d1: -1.#IND, -1.#IND, -1.#IND
d2: -1.#IND, -1.#IND, -1.#IND
d3: -25.8064, 4.8768, -11.3792
d4: -30.7767, 4.8768, -4.00917
d1: -1.#IND, -1.#IND, -1.#IND
d2: -1.#IND, -1.#IND, -1.#IND
d3: -25.8337, 4.8604, -11.3792
d4: -30.8053, 4.8768, -4.02343
d1: -1.#IND, -1.#IND, -1.#IND
d2: -1.#IND, -1.#IND, -1.#IND
d3: -25.861, 4.84402, -11.3792
d4: -30.8337, 4.8768, -4.03767
d1: -1.#IND, -1.#IND, -1.#IND
d2: -1.#IND, -1.#IND, -1.#IND
d3: -25.8882, 4.8277, -11.3792
d4: -30.8621, 4.8768, -4.05185
d1: -1.#IND, -1.#IND, -1.#IND
d2: -1.#IND, -1.#IND, -1.#IND
d3: -25.9155, 4.81134, -11.3792
d4: -30.8905, 4.8768, -4.06607
d1: -1.#IND, -1.#IND, -1.#IND
d2: -1.#IND, -1.#IND, -1.#IND
d3: -25.9441, 4.79416, -11.3792
d4: -30.9204, 4.8768, -4.081
d1: -1.#IND, -1.#IND, -1.#IND
d2: -1.#IND, -1.#IND, -1.#IND
d3: -25.9713, 4.77785, -11.3792
d4: -30.9488, 4.8768, -4.09518
d1: -1.#IND, -1.#IND, -1.#IND
d2: -1.#IND, -1.#IND, -1.#IND
d3: -25.9985, 4.76157, -11.3792
d4: -30.9771, 4.8768, -4.10934
d1: -1.#IND, -1.#IND, -1.#IND
d2: -1.#IND, -1.#IND, -1.#IND
d3: -26.0258, 4.74517, -11.3792
d4: -31.0056, 4.8768, -4.12359
d1: -1.#IND, -1.#IND, -1.#IND
d2: -1.#IND, -1.#IND, -1.#IND
d3: -26.053, 4.72886, -11.3792
d4: -31.0339, 4.8768, -4.13777
